1668.158564 seconds (1.12 M allocations: 56.031 MiB, 0.00% gc time)
                         Pass     Fail     Error    Skip   
PDF Files Compile    :   968      4        0        161    
Run Check Commands   :   212      1        0        32     
Subrepos BasicFiles  :   377      15       0        18     
OSS Equiv Scripts    :   64       101      0        136    

                       ---------------------------------
Total                    1621     121      0      
