mkdir -p /Users/jgoldfar/test-Linux
/usr/bin/hg summary
parent: 4560:ca858dd930e2 tip
 Update subrepos
branch: default
commit: 1 subrepos
update: 12 new changesets, 4 branch heads (merge)
/usr/local/bin/julia --color=no -e 'using CMSTest; exit(CMSTest.main())' runtests-all /Users/jgoldfar/Documents /Users/jgoldfar/test-Linux 
[ Info: Found test file /Users/jgoldfar/Documents/grad/apdes/su11/.cmstest.jl
[ Info: Found test file /Users/jgoldfar/Documents/grad/dissertation/.cmstest.jl
[ Info: Found test file /Users/jgoldfar/Documents/grad/dissertation/other/comp/.cmstest.jl
[ Info: Found test file /Users/jgoldfar/Documents/grad/dissertation/other/comp/comp-q-inc/.cmstest.jl
[ Info: Found test file /Users/jgoldfar/Documents/grad/dissertation/paper-parts/.cmstest.jl
[ Info: Found test file /Users/jgoldfar/Documents/grad/dissertation/proposal/.cmstest.jl
[ Info: Found test file /Users/jgoldfar/Documents/grad/dissertation/proposal/figures/.cmstest.jl
[ Info: Found test file /Users/jgoldfar/Documents/grad/dissertation/proposal/figures/isp/.cmstest.jl
[ Info: Found test file /Users/jgoldfar/Documents/grad/dissertation/proposal/inc/.cmstest.jl
[ Info: Found test file /Users/jgoldfar/Documents/grad/dissertation/proposal/parts/.cmstest.jl
[ Info: Found test file /Users/jgoldfar/Documents/grad/dissertation/proposal/res-num/.cmstest.jl
[ Info: Found test file /Users/jgoldfar/Documents/grad/dissertation/proposal/res-num/pde/.cmstest.jl
[ Info: Found test file /Users/jgoldfar/Documents/grad/dissertation/res-num/.cmstest.jl
[ Info: Found test file /Users/jgoldfar/Documents/grad/dissertation/res-num/pde/.cmstest.jl
[ Info: Found test file /Users/jgoldfar/Documents/grad/dissertation/talk/.cmstest.jl
[ Info: Found test file /Users/jgoldfar/Documents/grad/dissertation/talk/conv-parts/.cmstest.jl
[ Info: Found test file /Users/jgoldfar/Documents/grad/dissertation/talk/diff-parts/.cmstest.jl
[ Info: Found test file /Users/jgoldfar/Documents/grad/dissertation/talk/paper-parts/.cmstest.jl
[ Info: Found test file /Users/jgoldfar/Documents/grad/mth6230/.cmstest.jl
[ Info: Found test file /Users/jgoldfar/Documents/grad/mth6300/.cmstest.jl
[ Info: Found test file /Users/jgoldfar/Documents/grad/mth6300/abdulla_typed/.cmstest.jl
[ Info: Found test file /Users/jgoldfar/Documents/grad/mth6300/abdulla_typed/AIMS-2012/.cmstest.jl
[ Info: Found test file /Users/jgoldfar/Documents/grad/mth6300/abdulla_typed/YMC-2012/.cmstest.jl
[ Info: Found test file /Users/jgoldfar/Documents/grad/seminar/dsct/.cmstest.jl
[ Info: Found test file /Users/jgoldfar/Documents/grad/seminar/isp/.cmstest.jl
[ Info: Found test file /Users/jgoldfar/Documents/grad/seminar/optcont/.cmstest.jl
[ Info: Found test file /Users/jgoldfar/Documents/misc/.cmstest.jl
[ Info: Found test file /Users/jgoldfar/Documents/misc/allothers/.cmstest.jl
[ Info: Found test file /Users/jgoldfar/Documents/misc/ana_tex/.cmstest.jl
[ Info: Found test file /Users/jgoldfar/Documents/misc/env/bin/.cmstest.jl
[ Info: Found test file /Users/jgoldfar/Documents/misc/env/bin/julia/.cmstest.jl
[ Info: Found test file /Users/jgoldfar/Documents/misc/env/tex-include/Templates/.cmstest.jl
[ Info: Found test file /Users/jgoldfar/Documents/misc/env/tex-include/Templates/More/.cmstest.jl
[ Info: Found test file /Users/jgoldfar/Documents/misc/explore/julia/misc/.cmstest.jl
[ Info: Found test file /Users/jgoldfar/Documents/misc/explore/matlab/.cmstest.jl
[ Info: Found test file /Users/jgoldfar/Documents/misc/explore/matlab/passingFunctions/.cmstest.jl
[ Info: Found test file /Users/jgoldfar/Documents/misc/julia/.cmstest.jl
[ Info: Found test file /Users/jgoldfar/Documents/misc/julia/CMSTest/.cmstest.jl
[ Info: Found test file /Users/jgoldfar/Documents/misc/juliet/.cmstest.jl
[ Info: Found test file /Users/jgoldfar/Documents/misc/resume/.cmstest.jl
[ Info: Found test file /Users/jgoldfar/Documents/misc/resume/cv-secs/.cmstest.jl
[ Info: Found test file /Users/jgoldfar/Documents/notes/.cmstest.jl
[ Info: Found test file /Users/jgoldfar/Documents/notes/complex/.cmstest.jl
[ Info: Found test file /Users/jgoldfar/Documents/notes/independent/.cmstest.jl
[ Info: Found test file /Users/jgoldfar/Documents/notes/independent/book/goldman/snip/.cmstest.jl
[ Info: Found test file /Users/jgoldfar/Documents/notes/independent/book/lsu/.cmstest.jl
[ Info: Found test file /Users/jgoldfar/Documents/notes/independent/papers/oleinik_60/.cmstest.jl
[ Info: Found test file /Users/jgoldfar/Documents/research/chaos/.cmstest.jl
[ Info: Found test file /Users/jgoldfar/Documents/research/chaos/feigenbaum/jl/.cmstest.jl
[ Info: Found test file /Users/jgoldfar/Documents/research/chaos/feigenbaum/jl/doc/.cmstest.jl
[ Info: Found test file /Users/jgoldfar/Documents/research/chaos/feigenbaum/mat/.cmstest.jl
[ Info: Found test file /Users/jgoldfar/Documents/research/chaos/feigenbaum/mma/.cmstest.jl
[ Info: Found test file /Users/jgoldfar/Documents/research/chaos/parameter-values/.cmstest.jl
[ Info: Found test file /Users/jgoldfar/Documents/research/fda-pde/ml-ufldl/.cmstest.jl
[ Info: Found test file /Users/jgoldfar/Documents/research/fda-pde/ml-ufldl/figures/.cmstest.jl
[ Info: Found test file /Users/jgoldfar/Documents/research/misc/.cmstest.jl
[ Info: Found test file /Users/jgoldfar/Documents/research/misc/fa14-npde-course/.cmstest.jl
[ Info: Found test file /Users/jgoldfar/Documents/research/misc/proof-secs/.cmstest.jl
[ Info: Found test file /Users/jgoldfar/Documents/research/ndce/.cmstest.jl
[ Info: Found test file /Users/jgoldfar/Documents/research/ndce/codes/.cmstest.jl
[ Info: Found test file /Users/jgoldfar/Documents/research/ndce/codes/gen-python/doc/images/.cmstest.jl
[ Info: Found test file /Users/jgoldfar/Documents/research/ndce/codes/weno/.cmstest.jl
[ Info: Found test file /Users/jgoldfar/Documents/research/ndce/codes/weno-dde/.cmstest.jl
[ Info: Found test file /Users/jgoldfar/Documents/research/ndce/codes/weno-v2/.cmstest.jl
[ Info: Found test file /Users/jgoldfar/Documents/research/ndce/codes/weno-v2/doc/.cmstest.jl
[ Info: Found test file /Users/jgoldfar/Documents/research/ndce/ndce_paper/.cmstest.jl
[ Info: Found test file /Users/jgoldfar/Documents/research/ndce/ndce_paper/figures/tex/.cmstest.jl
[ Info: Found test file /Users/jgoldfar/Documents/research/ndce/reu-paper/figures/.cmstest.jl
[ Info: Found test file /Users/jgoldfar/Documents/research/npde/.cmstest.jl
[ Info: Found test file /Users/jgoldfar/Documents/research/numpde/.cmstest.jl
[ Info: Found test file /Users/jgoldfar/Documents/research/numpde/heat-ref/Mathematica/.cmstest.jl
[ Info: Found test file /Users/jgoldfar/Documents/research/numpde/numbvp/BVP.jl/doc/.cmstest.jl
[ Info: Found test file /Users/jgoldfar/Documents/research/optcont/.cmstest.jl
[ Info: Found test file /Users/jgoldfar/Documents/research/optcont/ISP.jl/.cmstest.jl
[ Info: Found test file /Users/jgoldfar/Documents/research/optcont/ISP.jl/Abdulla16/.cmstest.jl
[ Info: Found test file /Users/jgoldfar/Documents/research/optcont/ISP.jl/Abdulla16/examples/.cmstest.jl
[ Info: Found test file /Users/jgoldfar/Documents/research/optcont/ISP.jl/DataProvenance/.cmstest.jl
[ Info: Found test file /Users/jgoldfar/Documents/research/optcont/ISP.jl/ISPDist/.cmstest.jl
[ Info: Found test file /Users/jgoldfar/Documents/research/optcont/ISP.jl/ISPEx/.cmstest.jl
[ Info: Found test file /Users/jgoldfar/Documents/research/optcont/ISP.jl/ISPGrid/.cmstest.jl
[ Info: Found test file /Users/jgoldfar/Documents/research/optcont/ISP.jl/ISPPDE/.cmstest.jl
[ Info: Found test file /Users/jgoldfar/Documents/research/optcont/ISP.jl/ISPPDE/examples/.cmstest.jl
[ Info: Found test file /Users/jgoldfar/Documents/research/optcont/ISP.jl/doc/.cmstest.jl
[ Info: Found test file /Users/jgoldfar/Documents/research/optcont/ISP.jl/doc/figures/.cmstest.jl
[ Info: Found test file /Users/jgoldfar/Documents/research/optcont/JCode/.cmstest.jl
[ Info: Found test file /Users/jgoldfar/Documents/research/optcont/JCode/ISP/.cmstest.jl
[ Info: Found test file /Users/jgoldfar/Documents/research/optcont/JCode/ISP/doc/.cmstest.jl
[ Info: Found test file /Users/jgoldfar/Documents/research/optcont/JCode/ISP/doc/figures/.cmstest.jl
[ Info: Found test file /Users/jgoldfar/Documents/research/optcont/JCode/ISP/num/.cmstest.jl
[ Info: Found test file /Users/jgoldfar/Documents/research/optcont/JCode/ISP/num/osc2015-03-09/.cmstest.jl
[ Info: Found test file /Users/jgoldfar/Documents/research/optcont/JCode/ISP/test/.cmstest.jl
[ Info: Found test file /Users/jgoldfar/Documents/research/optcont/JCode/ISP/test/exportOutput/.cmstest.jl
[ Info: Found test file /Users/jgoldfar/Documents/research/optcont/JCode/OPT/examples/.cmstest.jl
[ Info: Found test file /Users/jgoldfar/Documents/research/optcont/JCode/OPT/test/testout/.cmstest.jl
[ Info: Found test file /Users/jgoldfar/Documents/research/optcont/JCode/PDE/test/checkdata/.cmstest.jl
[ Info: Found test file /Users/jgoldfar/Documents/research/optcont/JCode/PDE/test/exportOutput/.cmstest.jl
[ Info: Found test file /Users/jgoldfar/Documents/research/optcont/JCode/PDE/test/testout/.cmstest.jl
[ Info: Found test file /Users/jgoldfar/Documents/research/optcont/MCode/.cmstest.jl
[ Info: Found test file /Users/jgoldfar/Documents/research/optcont/MCode-Constrained/.cmstest.jl
[ Info: Found test file /Users/jgoldfar/Documents/research/optcont/MCode-Constrained/src/+model_fns/.cmstest.jl
[ Info: Found test file /Users/jgoldfar/Documents/research/optcont/MCodeV1/julia/.cmstest.jl
[ Info: Found test file /Users/jgoldfar/Documents/research/optcont/MCodeV1/julia/Abdulla16/.cmstest.jl
[ Info: Found test file /Users/jgoldfar/Documents/research/optcont/MCodeV1/julia/Abdulla16/examples/.cmstest.jl
[ Info: Found test file /Users/jgoldfar/Documents/research/optcont/MCodeV1/julia/ISPDist/.cmstest.jl
[ Info: Found test file /Users/jgoldfar/Documents/research/optcont/MCodeV1/julia/ISPGrid/.cmstest.jl
[ Info: Found test file /Users/jgoldfar/Documents/research/optcont/MCodeV1/julia/ISPPDE/.cmstest.jl
[ Info: Found test file /Users/jgoldfar/Documents/research/optcont/MCodeV1/julia/ISPPDE/examples/.cmstest.jl
[ Info: Found test file /Users/jgoldfar/Documents/research/optcont/MCodeV1/julia/doc/.cmstest.jl
[ Info: Found test file /Users/jgoldfar/Documents/research/optcont/MCodeV1/julia/doc/figures/.cmstest.jl
[ Info: Found test file /Users/jgoldfar/Documents/research/optcont/MISPCode/.cmstest.jl
[ Info: Found test file /Users/jgoldfar/Documents/research/optcont/MISPCode/MISPBase/doc/.cmstest.jl
[ Info: Found test file /Users/jgoldfar/Documents/research/optcont/MISPCode/MISPExamples/doc/.cmstest.jl
[ Info: Found test file /Users/jgoldfar/Documents/research/optcont/MISPCode/MISPExamples/doc/verif/.cmstest.jl
[ Info: Found test file /Users/jgoldfar/Documents/research/optcont/MISPCode/MISPTools/example/.cmstest.jl
[ Info: Found test file /Users/jgoldfar/Documents/research/optcont/MISPCode/examplePaper/.cmstest.jl
[ Info: Found test file /Users/jgoldfar/Documents/research/optcont/ODE/.cmstest.jl
[ Info: Found test file /Users/jgoldfar/Documents/research/optcont/code-docs/.cmstest.jl
[ Info: Found test file /Users/jgoldfar/Documents/research/optcont/code-docs/alt-scheme/.cmstest.jl
[ Info: Found test file /Users/jgoldfar/Documents/research/optcont/papers/.cmstest.jl
[ Info: Found test file /Users/jgoldfar/Documents/research/optcont/papers/MISP-diff/.cmstest.jl
[ Info: Found test file /Users/jgoldfar/Documents/research/optcont/papers/MISP-diff/verif/.cmstest.jl
[ Info: Found test file /Users/jgoldfar/Documents/research/optcont/papers/MISP-general/.cmstest.jl
[ Info: Found test file /Users/jgoldfar/Documents/research/optcont/papers/conv-a-paper/.cmstest.jl
[ Info: Found test file /Users/jgoldfar/Documents/research/optcont/papers/conv-paper/.cmstest.jl
[ Info: Found test file /Users/jgoldfar/Documents/research/optcont/papers/conv-paper/a-ptwise-interp-parts/.cmstest.jl
[ Info: Found test file /Users/jgoldfar/Documents/research/optcont/papers/conv-paper/common/.cmstest.jl
[ Info: Found test file /Users/jgoldfar/Documents/research/optcont/papers/conv-paper/disc-paper-parts/.cmstest.jl
[ Info: Found test file /Users/jgoldfar/Documents/research/optcont/papers/conv-paper/semidisc-paper-parts/.cmstest.jl
[ Info: Found test file /Users/jgoldfar/Documents/research/optcont/papers/diff-c-paper/.cmstest.jl
[ Info: Found test file /Users/jgoldfar/Documents/research/optcont/papers/diff-paper/.cmstest.jl
[ Info: Found test file /Users/jgoldfar/Documents/research/optcont/papers/diff-paper-comp/.cmstest.jl
[ Info: Found test file /Users/jgoldfar/Documents/research/optcont/papers/gen-constrained/.cmstest.jl
[ Info: Found test file /Users/jgoldfar/Documents/research/optcont/papers/isp-constrained/.cmstest.jl
[ Info: Found test file /Users/jgoldfar/Documents/research/optcont/papers/isp1fd/.cmstest.jl
[ Info: Found test file /Users/jgoldfar/Documents/research/optcont/papers/nd-paper/.cmstest.jl
[ Info: Found test file /Users/jgoldfar/Documents/research/optcont/papers/nd-paper/common/.cmstest.jl
[ Info: Found test file /Users/jgoldfar/Documents/research/optcont/papers/nd-paper/disc-paper-parts/.cmstest.jl
[ Info: Found test file /Users/jgoldfar/Documents/research/optcont/papers/nd-paper/semidisc-paper-parts/.cmstest.jl
[ Info: Found test file /Users/jgoldfar/Documents/research/optcont/papers/nd-paper/verif/.cmstest.jl
[ Info: Found test file /Users/jgoldfar/Documents/research/optcont/papers/nd-sphere-paper/.cmstest.jl
[ Info: Found test file /Users/jgoldfar/Documents/research/optcont/papers/nd-sphere-paper/common/.cmstest.jl
[ Info: Found test file /Users/jgoldfar/Documents/research/optcont/papers/nd-sphere-paper/paper-parts/.cmstest.jl
[ Info: Found test file /Users/jgoldfar/Documents/research/optcont/results/.cmstest.jl
[ Info: Found test file /Users/jgoldfar/Documents/research/paramid/LV-Diffusion/.cmstest.jl
[ Info: Found test file /Users/jgoldfar/Documents/research/seminar/.cmstest.jl
[ Info: Found test file /Users/jgoldfar/Documents/research/seminar/13.9.20_seminar/figures/tex/.cmstest.jl
[ Info: Found test file /Users/jgoldfar/Documents/research/seminar/13.9.20_seminar/sections/.cmstest.jl
[ Info: Found test file /Users/jgoldfar/Documents/research/seminar/14.09.09_seminar/.cmstest.jl
[ Info: Found test file /Users/jgoldfar/Documents/research/seminar/15.09.02/.cmstest.jl
[ Info: Found test file /Users/jgoldfar/Documents/research/seminar/ISP_convergence_talk/.cmstest.jl
[ Info: Found test file /Users/jgoldfar/Documents/research/seminar/ISP_convergence_talk/disc-paper-parts/.cmstest.jl
[ Info: Found test file /Users/jgoldfar/Documents/research/seminar/parts/.cmstest.jl
[ Info: Found test file /Users/jgoldfar/Documents/research/talks/ISP_Summary/.cmstest.jl
[ Info: Found test file /Users/jgoldfar/Documents/research/talks/ISP_Summary/conv-parts/.cmstest.jl
[ Info: Found test file /Users/jgoldfar/Documents/research/talks/ISP_Summary/diff-parts/.cmstest.jl
[ Info: Found test file /Users/jgoldfar/Documents/research/talks/ISP_Summary/paper-parts/.cmstest.jl
[ Info: Found test file /Users/jgoldfar/Documents/research/talks/ams_sec_sep17/.cmstest.jl
[ Info: Found test file /Users/jgoldfar/Documents/research/talks/jmm_15/.cmstest.jl
[ Info: Found test file /Users/jgoldfar/Documents/research/talks/jmm_15a/figures/.cmstest.jl
[ Info: Found test file /Users/jgoldfar/Documents/research/talks/jmm_15b/.cmstest.jl
[ Info: Found test file /Users/jgoldfar/Documents/research/talks/jmm_15b/figures/.cmstest.jl
[ Info: Found test file /Users/jgoldfar/Documents/research/talks/jmm_16/.cmstest.jl
[ Info: Found test file /Users/jgoldfar/Documents/research/talks/jmm_17/.cmstest.jl
[ Info: Found test file /Users/jgoldfar/Documents/research/talks/jmm_17/diff-paper-parts/.cmstest.jl
[ Info: Found test file /Users/jgoldfar/Documents/research/talks/jmm_19/.cmstest.jl
[ Info: Found test file /Users/jgoldfar/Documents/research/talks/research_summary/.cmstest.jl
[ Info: Found test file /Users/jgoldfar/Documents/research/talks/searcde16/.cmstest.jl
[ Info: Found test file /Users/jgoldfar/Documents/research/talks/siam_an12/figures/.cmstest.jl
[ Info: Found test file /Users/jgoldfar/Documents/research/talks/siam_pd15/.cmstest.jl
[ Info: Found test file /Users/jgoldfar/Documents/research/talks/siam_pd15/figures/.cmstest.jl
[ Info: Found test file /Users/jgoldfar/Documents/research/talks/siam_pd15/figures/isp/.cmstest.jl
[ Info: Found test file /Users/jgoldfar/Documents/research/talks/siam_pd17/talk/.cmstest.jl
[ Info: Found test file /Users/jgoldfar/Documents/research/talks/siam_pd17/talk/diff-paper-parts/.cmstest.jl
[ Info: Found test file /Users/jgoldfar/Documents/ugrad/.cmstest.jl
[ Info: Found test file /Users/jgoldfar/Documents/ugrad/fluids_lab/.cmstest.jl
[ Info: Found test file /Users/jgoldfar/Documents/ugrad/fp/tex/.cmstest.jl
[ Info: Found test file /Users/jgoldfar/Documents/ugrad/fp/tex/chiao/.cmstest.jl
[ Info: Found test file /Users/jgoldfar/Documents/ugrad/fp/tex/irlandi/.cmstest.jl
[ Info: Found test file /Users/jgoldfar/Documents/ugrad/fp/tex/windsor/.cmstest.jl
[ Info: Found test file /Users/jgoldfar/Documents/ugrad/models/examples/.cmstest.jl
[ Info: Found test file /Users/jgoldfar/Documents/ugrad/tpl/.cmstest.jl
[ Info: Found test file /Users/jgoldfar/Documents/work/APDE/.cmstest.jl
[ Info: Found test file /Users/jgoldfar/Documents/work/APDE/advanced/.cmstest.jl
[ Info: Found test file /Users/jgoldfar/Documents/work/APDE/codes/.cmstest.jl
[ Info: Found test file /Users/jgoldfar/Documents/work/APDE/current/.cmstest.jl
[ Info: Found test file /Users/jgoldfar/Documents/work/APDE/hw/.cmstest.jl
[ Info: Found test file /Users/jgoldfar/Documents/work/APDE/hw/exercises/.cmstest.jl
[ Info: Found test file /Users/jgoldfar/Documents/work/APDE/misc/.cmstest.jl
[ Info: Found test file /Users/jgoldfar/Documents/work/Calc1/.cmstest.jl
[ Info: Found test file /Users/jgoldfar/Documents/work/Calc1/labs/.cmstest.jl
[ Info: Found test file /Users/jgoldfar/Documents/work/Calc1/labs_extended/.cmstest.jl
[ Info: Found test file /Users/jgoldfar/Documents/work/Calc1/notes/.cmstest.jl
[ Info: Found test file /Users/jgoldfar/Documents/work/Calc1/notes/2.2/.cmstest.jl
[ Info: Found test file /Users/jgoldfar/Documents/work/Calc1/notes/2.3/.cmstest.jl
[ Info: Found test file /Users/jgoldfar/Documents/work/Calc1/notes/2.5/.cmstest.jl
[ Info: Found test file /Users/jgoldfar/Documents/work/Calc1/notes/2.6/.cmstest.jl
[ Info: Found test file /Users/jgoldfar/Documents/work/Calc1/notes/2.7/.cmstest.jl
[ Info: Found test file /Users/jgoldfar/Documents/work/Calc1/notes/2.8/.cmstest.jl
[ Info: Found test file /Users/jgoldfar/Documents/work/Calc1/notes/3.1/.cmstest.jl
[ Info: Found test file /Users/jgoldfar/Documents/work/Calc1/notes/3.11/.cmstest.jl
[ Info: Found test file /Users/jgoldfar/Documents/work/Calc1/notes/3.2/.cmstest.jl
[ Info: Found test file /Users/jgoldfar/Documents/work/Calc1/notes/3.3/.cmstest.jl
[ Info: Found test file /Users/jgoldfar/Documents/work/Calc1/notes/3.4/.cmstest.jl
[ Info: Found test file /Users/jgoldfar/Documents/work/Calc1/notes/3.5/.cmstest.jl
[ Info: Found test file /Users/jgoldfar/Documents/work/Calc1/notes/3.6/.cmstest.jl
[ Info: Found test file /Users/jgoldfar/Documents/work/Calc1/notes/3.7/.cmstest.jl
[ Info: Found test file /Users/jgoldfar/Documents/work/Calc1/notes/3.9/.cmstest.jl
[ Info: Found test file /Users/jgoldfar/Documents/work/Calc1/notes/4.1/.cmstest.jl
[ Info: Found test file /Users/jgoldfar/Documents/work/Calc1/notes/4.2/.cmstest.jl
[ Info: Found test file /Users/jgoldfar/Documents/work/Calc1/notes/4.3/.cmstest.jl
[ Info: Found test file /Users/jgoldfar/Documents/work/Calc1/notes/4.4/.cmstest.jl
[ Info: Found test file /Users/jgoldfar/Documents/work/Calc1/notes/4.5/.cmstest.jl
[ Info: Found test file /Users/jgoldfar/Documents/work/Calc1/notes/4.7/.cmstest.jl
[ Info: Found test file /Users/jgoldfar/Documents/work/Calc1/notes/4.8/.cmstest.jl
[ Info: Found test file /Users/jgoldfar/Documents/work/Calc1/notes/4.9/.cmstest.jl
[ Info: Found test file /Users/jgoldfar/Documents/work/Calc1/notes/5.1/.cmstest.jl
[ Info: Found test file /Users/jgoldfar/Documents/work/Calc1/notes/5.2/.cmstest.jl
[ Info: Found test file /Users/jgoldfar/Documents/work/Calc1/notes/5.3/.cmstest.jl
[ Info: Found test file /Users/jgoldfar/Documents/work/Calc1/notes/5.4/.cmstest.jl
[ Info: Found test file /Users/jgoldfar/Documents/work/Calc1/notes/5.5/.cmstest.jl
[ Info: Found test file /Users/jgoldfar/Documents/work/Calc1/qbank/2.2/.cmstest.jl
[ Info: Found test file /Users/jgoldfar/Documents/work/Calc1/qbank/2.3/.cmstest.jl
[ Info: Found test file /Users/jgoldfar/Documents/work/Calc1/qbank/2.5/.cmstest.jl
[ Info: Found test file /Users/jgoldfar/Documents/work/Calc1/qbank/2.6/.cmstest.jl
[ Info: Found test file /Users/jgoldfar/Documents/work/Calc1/qbank/2.7/.cmstest.jl
[ Info: Found test file /Users/jgoldfar/Documents/work/Calc1/qbank/2.8/.cmstest.jl
[ Info: Found test file /Users/jgoldfar/Documents/work/Calc1/qbank/3.1/.cmstest.jl
[ Info: Found test file /Users/jgoldfar/Documents/work/Calc1/qbank/3.11/.cmstest.jl
[ Info: Found test file /Users/jgoldfar/Documents/work/Calc1/qbank/3.2/.cmstest.jl
[ Info: Found test file /Users/jgoldfar/Documents/work/Calc1/qbank/3.3/.cmstest.jl
[ Info: Found test file /Users/jgoldfar/Documents/work/Calc1/qbank/3.4/.cmstest.jl
[ Info: Found test file /Users/jgoldfar/Documents/work/Calc1/qbank/3.5/.cmstest.jl
[ Info: Found test file /Users/jgoldfar/Documents/work/Calc1/qbank/3.6/.cmstest.jl
[ Info: Found test file /Users/jgoldfar/Documents/work/Calc1/qbank/3.7/.cmstest.jl
[ Info: Found test file /Users/jgoldfar/Documents/work/Calc1/qbank/3.9/.cmstest.jl
[ Info: Found test file /Users/jgoldfar/Documents/work/Calc1/qbank/4.1/.cmstest.jl
[ Info: Found test file /Users/jgoldfar/Documents/work/Calc1/qbank/4.2/.cmstest.jl
[ Info: Found test file /Users/jgoldfar/Documents/work/Calc1/qbank/4.3/.cmstest.jl
[ Info: Found test file /Users/jgoldfar/Documents/work/Calc1/qbank/4.4/.cmstest.jl
[ Info: Found test file /Users/jgoldfar/Documents/work/Calc1/qbank/4.5/.cmstest.jl
[ Info: Found test file /Users/jgoldfar/Documents/work/Calc1/qbank/4.7/.cmstest.jl
[ Info: Found test file /Users/jgoldfar/Documents/work/Calc1/qbank/4.8/.cmstest.jl
[ Info: Found test file /Users/jgoldfar/Documents/work/Calc1/qbank/4.9/.cmstest.jl
[ Info: Found test file /Users/jgoldfar/Documents/work/Calc1/qbank/5.1/.cmstest.jl
[ Info: Found test file /Users/jgoldfar/Documents/work/Calc1/qbank/5.2/.cmstest.jl
[ Info: Found test file /Users/jgoldfar/Documents/work/Calc1/qbank/5.3/.cmstest.jl
[ Info: Found test file /Users/jgoldfar/Documents/work/Calc1/qbank/5.4/.cmstest.jl
[ Info: Found test file /Users/jgoldfar/Documents/work/Calc1/syl/.cmstest.jl
[ Info: Found test file /Users/jgoldfar/Documents/work/Calc2/.cmstest.jl
[ Info: Found test file /Users/jgoldfar/Documents/work/Calc3/.cmstest.jl
[ Info: Found test file /Users/jgoldfar/Documents/work/DiffEq/.cmstest.jl
[ Info: Found test file /Users/jgoldfar/Documents/work/DiffEq/proj/.cmstest.jl
[ Info: Found test file /Users/jgoldfar/Documents/work/GrpProj/.cmstest.jl
[ Info: Found test file /Users/jgoldfar/Documents/work/GrpProj/Calc1/.cmstest.jl
[ Info: Found test file /Users/jgoldfar/Documents/work/GrpProj/Calc2/.cmstest.jl
[ Info: Found test file /Users/jgoldfar/Documents/work/GrpProj/Calc3/.cmstest.jl
[ Info: Found test file /Users/jgoldfar/Documents/work/GrpProj/Calc3/g2.inc/.cmstest.jl
[ Info: Found test file /Users/jgoldfar/Documents/work/GrpProj/Calc3/g3.inc/.cmstest.jl
[ Info: Found test file /Users/jgoldfar/Documents/work/GrpProj/Calc3/g4.inc/.cmstest.jl
[ Info: Found test file /Users/jgoldfar/Documents/work/GrpProj/DiffEq/.cmstest.jl
[ Info: Found test file /Users/jgoldfar/Documents/work/MAC/.cmstest.jl
[ Info: Found test file /Users/jgoldfar/Documents/work/Models/.cmstest.jl
[ Info: Found test file /Users/jgoldfar/Documents/work/ProbStat/.cmstest.jl
[ Info: Found test file /Users/jgoldfar/Documents/work/PutnamPrep/.cmstest.jl
[ Info: Found test file /Users/jgoldfar/Documents/work/PutnamPrepOther/.cmstest.jl
[ Info: Found test file /Users/jgoldfar/Documents/work/acalc/.cmstest.jl
[ Info: Found test file /Users/jgoldfar/Documents/work/acalc/1603/.cmstest.jl
[ Info: Found test file /Users/jgoldfar/Documents/work/acalc/1702/.cmstest.jl
[ Info: Found test file /Users/jgoldfar/Documents/work/acalc/1702/perweek/.cmstest.jl
[ Info: Found test file /Users/jgoldfar/Documents/work/acalc/calc-sec/.cmstest.jl
[ Info: Found test file /Users/jgoldfar/Documents/work/alg/.cmstest.jl
[ Info: Found test file /Users/jgoldfar/Documents/work/alg/curr/.cmstest.jl
[ Info: Found test file /Users/jgoldfar/Documents/work/alg/review/.cmstest.jl
[ Info: Found test file /Users/jgoldfar/Documents/work/alg/review/0111-sec/.cmstest.jl
[ Info: Found test file /Users/jgoldfar/Documents/work/alg/review/1701-sec/.cmstest.jl
[ Info: Found test file /Users/jgoldfar/Documents/work/alg/review/cart/.cmstest.jl
[ Info: Found test file /Users/jgoldfar/Documents/work/alg/review/exp-log/.cmstest.jl
[ Info: Found test file /Users/jgoldfar/Documents/work/alg/review/function/.cmstest.jl
[ Info: Found test file /Users/jgoldfar/Documents/work/alg/review/linsys/.cmstest.jl
[ Info: Found test file /Users/jgoldfar/Documents/work/alg/review/poly/.cmstest.jl
[ Info: Found test file /Users/jgoldfar/Documents/work/alg/review/rev/.cmstest.jl
[ Info: Found test file /Users/jgoldfar/Documents/work/alg/review/trig/.cmstest.jl
[ Info: Found test file /Users/jgoldfar/Documents/work/common/.cmstest.jl
[ Info: Found test file /Users/jgoldfar/Documents/work/matlab-workshop/.cmstest.jl
[ Info: Found test file /Users/jgoldfar/Documents/work/projects/.cmstest.jl
[ Info: Found test file /Users/jgoldfar/Documents/work/projects/abdulla/NSF-2015/.cmstest.jl
[ Info: Found test file /Users/jgoldfar/Documents/work/projects/abdulla/digraphs/.cmstest.jl
[ Info: Found test file /Users/jgoldfar/Documents/work/projects/blog-drafts/.cmstest.jl
[ Info: Found test file /Users/jgoldfar/Documents/work/projects/buildf2c/.cmstest.jl
[ Info: Found test file /Users/jgoldfar/Documents/work/projects/conf-gen/.cmstest.jl
[ Info: Found test file /Users/jgoldfar/Documents/work/projects/conf-gen/abs_letter/content/.cmstest.jl
[ Info: Found test file /Users/jgoldfar/Documents/work/projects/conf-gen/abs_letter/layout/.cmstest.jl
[ Info: Found test file /Users/jgoldfar/Documents/work/projects/conf-gen/certificates/.cmstest.jl
[ Info: Found test file /Users/jgoldfar/Documents/work/projects/conf-gen/inv_letter/content/.cmstest.jl
[ Info: Found test file /Users/jgoldfar/Documents/work/projects/conf-gen/inv_letter/layout/.cmstest.jl
[ Info: Found test file /Users/jgoldfar/Documents/work/projects/conf-gen/mealtickets/.cmstest.jl
[ Info: Found test file /Users/jgoldfar/Documents/work/projects/conf-gen/reg-form/.cmstest.jl
[ Info: Found test file /Users/jgoldfar/Documents/work/projects/conf-gen/site/content/absbook/.cmstest.jl
[ Info: Found test file /Users/jgoldfar/Documents/work/projects/dsct-laserday/.cmstest.jl
[ Info: Found test file /Users/jgoldfar/Documents/work/projects/personal-site/.cmstest.jl
[ Info: Found test file /Users/jgoldfar/Documents/work/projects/personal-site/content/teaching/matlab/.cmstest.jl
[ Info: Found test file /Users/jgoldfar/Documents/work/projects/reu/.cmstest.jl
[ Info: Found test file /Users/jgoldfar/Documents/work/projects/reu-admin/notes/dsct/.cmstest.jl
[ Info: Found test file /Users/jgoldfar/Documents/work/projects/reu-admin/notes/npde/.cmstest.jl
[ Info: Found test file /Users/jgoldfar/Documents/work/projects/reu-admin/notes/npde/report/figures/.cmstest.jl
[ Info: Found test file /Users/jgoldfar/Documents/work/projects/reu-admin/report/.cmstest.jl
[ Info: Found test file /Users/jgoldfar/Documents/work/projects/reu-admin/report-old/.cmstest.jl
[ Info: Found test file /Users/jgoldfar/Documents/work/projects/reu-site/gen/content/.cmstest.jl
[ Info: Found test file /Users/jgoldfar/Documents/work/projects/swiper/.cmstest.jl
[ Info: Found test file /Users/jgoldfar/Documents/work/projects/typing/fulton-siam-2016/.cmstest.jl
[ Info: Found test file /Users/jgoldfar/Documents/work/projects/typing/jmandelkern/.cmstest.jl
[ Info: Found test file /Users/jgoldfar/Documents/work/projects/typing/nadiyah/.cmstest.jl
[ Info: Found test file /Users/jgoldfar/Documents/work/projects/ugr/docs/ode/.cmstest.jl
[ Info: Found test file /Users/jgoldfar/Documents/work/projects/ugr/sp12/nmertins/.cmstest.jl
[ Info: Found test file /Users/jgoldfar/Documents/work/projects/ugr/sp13/malik/.cmstest.jl
[ Info: Found test file /Users/jgoldfar/Documents/work/siam-chapter/.cmstest.jl
[ Info: Found test file /Users/jgoldfar/Documents/work/siam-chapter/ayr12/.cmstest.jl
[ Info: Found test file /Users/jgoldfar/Documents/work/siam-chapter/ayr13/.cmstest.jl
[ Info: Found test file /Users/jgoldfar/Documents/work/siam-chapter/summer_school/2013/.cmstest.jl
[ Info: Found test file /Users/jgoldfar/Documents/work/siam-chapter/summer_school/2013/yrnotes/.cmstest.jl
[ Info: Found test file /Users/jgoldfar/Documents/work/siam-chapter/summer_school/notes/.cmstest.jl
[ Info: Found test file /Users/jgoldfar/Documents/work/siam-chapter/summer_school/notes/codes/.cmstest.jl
[ Info: Found test file /Users/jgoldfar/Documents/work/training/julia/.cmstest.jl
[ Info: Found test file /Users/jgoldfar/Documents/work/training/latex/.cmstest.jl
[ Info: Found test file /Users/jgoldfar/Documents/work/training/latex/BlankProj/.cmstest.jl
[ Info: Found test file /Users/jgoldfar/Documents/work/training/maxima/.cmstest.jl
4672.936002 seconds (801.25 k allocations: 50.470 MiB, 0.00% gc time)
